{
	"Routes": [
		{
			"DownstreamPathTemplate": "/api/{version}/{everything}",
			"DownstreamScheme": "http",
			"DownstreamHostAndPorts": [
				{
					"Host": "basket.api",
					"Port": 80
				}
			],
			"UpstreamHeaderTransform": {
				"X-Forwarded-For": "{RemoteIpAddress}"
			},
			"UpstreamPathTemplate": "/api/{version}/basket/{everything}",
			"UpstreamHttpMethod": [ "GET", "POST", "PUT", "DELETE" ],
			"FileCacheOptions": { "TtlSeconds": 10 } // cache for 1 minute
		},
		{
			"DownstreamPathTemplate": "/api/{version}/{everything}",
			"DownstreamScheme": "http",
			"DownstreamHostAndPorts": [
				{
					"Host": "blog.api",
					"Port": 80
				}
			],
			"UpstreamHeaderTransform": {
				"X-Forwarded-For": "{RemoteIpAddress}"
			},
			"FileCacheOptions": { "TtlSeconds": 60 }, // cache for 1 minute
			"UpstreamPathTemplate": "/api/{version}/blog/{everything}",
			"UpstreamHttpMethod": [ "GET", "POST", "PUT", "DELETE" ]
		},
		{
			"DownstreamPathTemplate": "/api/{version}/{everything}",
			"DownstreamScheme": "http",
			"DownstreamHostAndPorts": [
				{
					"Host": "messagecontact.api",
					"Port": 80
				}
			],
			"UpstreamHeaderTransform": {
				"X-Forwarded-For": "{RemoteIpAddress}"
			},
			"FileCacheOptions": { "TtlSeconds": 60 }, // cache for 1 minute
			"UpstreamPathTemplate": "/api/{version}/messagecontact/{everything}",
			"UpstreamHttpMethod": [ "GET", "POST", "PUT", "DELETE" ]
		},
		{
			"DownstreamPathTemplate": "/api/{version}/{everything}",
			"DownstreamScheme": "http",
			"DownstreamHostAndPorts": [
				{
					"Host": "order.api",
					"Port": 80
				}
			],
			"UpstreamHeaderTransform": {
				"X-Forwarded-For": "{RemoteIpAddress}"
			},
			"FileCacheOptions": { "TtlSeconds": 60 }, // cache for 1 minute
			"UpstreamPathTemplate": "/api/{version}/order/{everything}",
			"UpstreamHttpMethod": [ "GET", "POST", "PUT", "DELETE" ]
		},
		{
			"DownstreamPathTemplate": "/api/{version}/{everything}",
			"DownstreamScheme": "http",
			"DownstreamHostAndPorts": [
				{
					"Host": "product.api",
					"Port": 80
				}
			],
			"UpstreamHeaderTransform": {
				"X-Forwarded-For": "{RemoteIpAddress}"
			},
			"FileCacheOptions": { "TtlSeconds": 60 }, // cache for 1 minute
			"UpstreamPathTemplate": "/api/{version}/product/{everything}",
			"UpstreamHttpMethod": [ "GET", "POST", "PUT", "DELETE" ]
		},
		{
			"DownstreamPathTemplate": "/api/{version}/{everything}",
			"DownstreamScheme": "http",
			"DownstreamHostAndPorts": [
				{
					"Host": "system.api",
					"Port": 80
				}
			],
			"UpstreamHeaderTransform": {
				"X-Forwarded-For": "{RemoteIpAddress}"
			},
			"FileCacheOptions": { "TtlSeconds": 300 }, // cache for 1 minute
			"UpstreamPathTemplate": "/api/{version}/system/{everything}",
			"UpstreamHttpMethod": [ "GET", "POST", "PUT", "DELETE" ]
		},
		{
			"DownstreamPathTemplate": "/api/{version}/{everything}",
			"DownstreamScheme": "http",
			"DownstreamHostAndPorts": [
				{
					"Host": "shopping.aggregator",
					"Port": 80
				}
			],
			"UpstreamHeaderTransform": {
				"X-Forwarded-For": "{RemoteIpAddress}"
			},
			"FileCacheOptions": { "TtlSeconds": 60 }, // cache for 1 minute
			"UpstreamPathTemplate": "/shopping/{everything}",
			"UpstreamHttpMethod": [ "GET", "POST", "PUT", "DELETE" ]
		}
	],
	"GlobalConfiguration": {
		"RequestIdKey": "OcRequestId",
		"AdministrationPath": "/administration",
		"BaseUrl": "http://localhost:8686"
	}
}
